{
    "particles": {
      "number": {
        "value": 110,
        "density": {
          "enable": true,
          "value_area": 800
        }
      },
      "color": {
        "value": "#4ccb25"
      },
      "shape": {
        "type": ["image", "image1"],
        "stroke": {
          "width": 0,
          "color": "#000"
        },
        "polygon": {
          "nb_sides": 4
        },
        "image": {
          "src": "img/0.png?v=1.1",
          "width": 1,
          "height": 1
        }
      },
      "opacity": {
        "value": 1,
        "random": false,
        "anim": {
          "enable": false,
          "speed": 1,
          "opacity_min": 0.1,
          "sync": false
        }
      },
      "size": {
        "value": 3.5,
        "random": false,
        "anim": {
          "enable": false,
          "speed": 1,
          "size_min": 1,
          "sync": false
        }
      },
      "line_linked": {
        "enable": false,
        "distance": 200,
        "color": "#ffffff",
        "opacity": 1,
        "width": 2
      },
      "move": {
        "enable": true,
        "speed": 1,
        "direction": "none",
        "random": false,
        "straight": false,
        "out_mode": "out",
        "bounce": false,
        "attract": {
          "enable": false,
          "rotateX": 600,
          "rotateY": 1200
        }
      }
    },
    "interactivity": {
      "detect_on": "canvas",
      "events": {
        "onhover": {
          "enable": true,
          "mode": "repulse"
        },
        "onclick": {
          "enable": true,
          "mode": "repulse"
        },
        "resize": true
      },
      "modes": {
        "grab": {
          "distance": 400,
          "line_linked": {
            "opacity": 1
          }
        },
        "bubble": {
          "distance": 400,
          "size": 40,
          "duration": 2,
          "opacity": 8,
          "speed": 3
        },
        "repulse": {
          "distance": 100,
          "duration": 0.2
        },
        "push": {
          "particles_nb": 4
        },
        "remove": {
          "particles_nb": 2
        }
      }
    },
    "retina_detect": true
  }